{
    "board_room": {
        "name": "Board Room",
        "description": "The Arcane Kids Board Room",
        "localDescription": "You are standing in a board room.",

        "entities": [
            {
                "index": "sign",
                "name": "company banner",
                "description": "The company mantra is proudly displayed: [FLASHING]PRETTY GOOD GAMES FOR KIDS IN SCHOOL[/FLASHING]",

                "difficulties": {
                    "air": 1,
                    "grind": 1
                },
                "modifiers": {
                    "air": 4
                }
            },
            {
                "index": "secret_docs",
                "name": "confidential files",
                "description": "The file is labeled \"#selfies #make #me #famous\"",
                
                "read": "You try to open the file but you're not allowed to"
            },
            {
                "index": "blueprints",
                "name": "blueprints",
                "description": "Blueprints drenched in blood.  You can make out the letters, \"GAMES-\""
            },
            {
                "index": "table",
                "name": "table",
                "description": "A thick table make from maple trees.  You are confused by the shape (skull).",
                "read": "There is a small inscription carved into the table. It's too small to read.",

                "difficulties": {
                    "air": 1,
                    "grind": 1
                }
            },

            {
                "index": "coolatv",
                "name": "coolatv99",
                "description": "He is sitting across the table. His blood type is [COLOR GREEN][MARQUEE slide left]\"magic/hi-score\"[/MARQUEE][/COLOR].",
                "talk": "...",
                "read": "..."
            },
            {
                "index": "torahhorse",
                "name": "torahhorse",
                "description": "He is sitting across the table. His blood type is \"big willy style\".",
                "talk": "...",
                "read": "..."
            },
            {
                "index": "lordanime",
                "name": "lordanime",
                "description": "...",
                "talk": "...",
                "read": "..."
            }
        ]
    }
}